 ____                      ____   _                      
| __ )   __ _  ___   ___  / ___| | |_   ___   _ __   ___ 
|  _ \  / _` |/ __| / _ \ \___ \ | __| / _ \ | '__| / _ \
| |_) || (_| |\__ \|  __/  ___) || |_ | (_) || |   |  __/
|____/  \__,_||___/ \___| |____/  \__| \___/ |_|    \___|
                                                         
